{
    "fluentMethods": true,
    "relationships": [],
    "fields": [
        {
            "fieldName": "nombre",
            "fieldType": "String"
        },
        {
            "fieldName": "descripcion",
            "fieldType": "String"
        },
        {
            "fieldName": "receta",
            "fieldType": "String"
        },
        {
            "fieldName": "imagen",
            "fieldType": "byte[]",
            "fieldTypeBlobContent": "image"
        }
    ],
    "changelogDate": "20180628110629",
    "entityTableName": "arepita",
    "dto": "mapstruct",
    "pagination": "infinite-scroll",
    "service": "serviceImpl",
    "jpaMetamodelFiltering": false
}